{"name":"list_users","id":"reqres.WhenInteractingWithUsers:list_users","testCaseName":"reqres.WhenInteractingWithUsers","testSteps":[{"number":1,"description":"Sam the supervisor executes a GET on the resource /users","duration":68,"startTime":"2023-01-14T11:01:58.548902773Z[Etc/UTC]","result":"SUCCESS","precondition":false,"level":0,"children":[{"number":2,"description":"GET https://reqres.in/api/users?page\u003d1","duration":1,"startTime":"2023-01-14T11:01:58.614842578Z[Etc/UTC]","result":"SUCCESS","restQuery":{"method":"GET","path":"https://reqres.in/api/users?page\u003d1","content":"","contentType":"application/json","requestHeaders":"Accept\u003d*/*\n\t\t\t\tContent-Type\u003dapplication/json","requestCookies":"","responseHeaders":"Date: Sat, 14 Jan 2023 11:01:58 GMT\nContent-Type: application/json; charset\u003dutf-8\nTransfer-Encoding: chunked\nConnection: keep-alive\nX-Powered-By: Express\nAccess-Control-Allow-Origin: *\nEtag: W/\"3e4-2RLXvr5wTg9YQ6aH95CkYoFNuO8\"\nVia: 1.1 vegur\nCache-Control: max-age\u003d14400\nCF-Cache-Status: HIT\nAge: 3972\nReport-To: {\"endpoints\":[{\"url\":\"https:\\/\\/a.nel.cloudflare.com\\/report\\/v3?s\u003drYmkTU9a3MStPMQWDEAbonP5spFa%2Fdw%2B94IFY5ZirjunkdR3OiqViGSz95snTyojoezkUHtkA1qdJsKJWN8K%2F1y2DmP3Ex2inkEPVc5joMtw1Vd9%2BKzY8ocA3g%3D%3D\"}],\"group\":\"cf-nel\",\"max_age\":604800}\nNEL: {\"success_fraction\":0,\"report_to\":\"cf-nel\",\"max_age\":604800}\nVary: Accept-Encoding\nServer: cloudflare\nCF-RAY: 7895e0713efd5aff-IAD\nContent-Encoding: gzip","responseCookies":"","responseBody":"{\n    \"page\": 1,\n    \"per_page\": 6,\n    \"total\": 12,\n    \"total_pages\": 2,\n    \"data\": [\n        {\n            \"id\": 1,\n            \"email\": \"george.bluth@reqres.in\",\n            \"first_name\": \"George\",\n            \"last_name\": \"Bluth\",\n            \"avatar\": \"https://reqres.in/img/faces/1-image.jpg\"\n        },\n        {\n            \"id\": 2,\n            \"email\": \"janet.weaver@reqres.in\",\n            \"first_name\": \"Janet\",\n            \"last_name\": \"Weaver\",\n            \"avatar\": \"https://reqres.in/img/faces/2-image.jpg\"\n        },\n        {\n            \"id\": 3,\n            \"email\": \"emma.wong@reqres.in\",\n            \"first_name\": \"Emma\",\n            \"last_name\": \"Wong\",\n            \"avatar\": \"https://reqres.in/img/faces/3-image.jpg\"\n        },\n        {\n            \"id\": 4,\n            \"email\": \"eve.holt@reqres.in\",\n            \"first_name\": \"Eve\",\n            \"last_name\": \"Holt\",\n            \"avatar\": \"https://reqres.in/img/faces/4-image.jpg\"\n        },\n        {\n            \"id\": 5,\n            \"email\": \"charles.morris@reqres.in\",\n            \"first_name\": \"Charles\",\n            \"last_name\": \"Morris\",\n            \"avatar\": \"https://reqres.in/img/faces/5-image.jpg\"\n        },\n        {\n            \"id\": 6,\n            \"email\": \"tracey.ramos@reqres.in\",\n            \"first_name\": \"Tracey\",\n            \"last_name\": \"Ramos\",\n            \"avatar\": \"https://reqres.in/img/faces/6-image.jpg\"\n        }\n    ],\n    \"support\": {\n        \"url\": \"https://reqres.in/#support-heading\",\n        \"text\": \"To keep ReqRes free, contributions towards server costs are appreciated!\"\n    }\n}","statusCode":200},"precondition":false,"level":1}]},{"number":3,"description":"All users on page 1 should be returned","duration":19,"startTime":"2023-01-14T11:01:58.632181436Z[Etc/UTC]","result":"SUCCESS","precondition":false,"level":0}],"userStory":{"id":"reqres.WhenInteractingWithUsers","storyName":"When interacting with users","displayName":"When interacting with users","storyClassName":"reqres.WhenInteractingWithUsers","path":"reqres","type":"story","qualifiedTag":{"name":"Reqres/When interacting with users","type":"story","displayName":"Reqres/When interacting with users"}},"featureTag":{"name":"Reqres/When interacting with users","type":"story","displayName":"Reqres/When interacting with users"},"title":"List users","tags":[{"name":"Reqres/When interacting with users","type":"story","displayName":"Reqres/When interacting with users"}],"allTags":[{"name":"Reqres/When interacting with users","type":"story","displayName":"Reqres/When interacting with users"}],"startTime":"2023-01-14T11:01:58.541427405Z[Etc/UTC]","duration":112,"projectKey":"","driver":"","isManualTestingUpToDate":false,"manual":false,"testSource":"JUnit5","actors":[{"name":"Sam the supervisor","can":["call an API at https://reqres.in/api"]}],"order":0,"result":"SUCCESS"}